,start_time,end_time,T_in_mean,T_out_mean,tau,T0,tau_variance,T0_variance
0,2018-02-23 21:15:00,2018-02-23 21:40:00,23.13888888888889,5.555555555555556,970.6702570243476,17.810540553672965,72.4386051775836,0.020558858938055917
1,2018-02-23 21:55:00,2018-02-23 22:05:00,22.833333333333332,5.5555555555555545,1555.000001641849,17.333363010107146,1.443387735103422,6.661609380503073e-05
2,2018-02-23 22:45:00,2018-02-23 23:05:00,22.333333333333332,5.555555555555555,1510.004414813695,16.889072115843987,1.7078563755641456,0.00015424917575401534
3,2018-02-24 03:55:00,2018-02-24 04:20:00,20.694444444444446,3.3796296296296284,1558.3405552484237,17.45399955034698,1.8257883520011915,0.0001976383295576997
4,2018-02-24 04:45:00,2018-02-24 04:55:00,20.333333333333332,3.277777777777777,1535.000000816018,17.111141173319943,1.4433864000805254,6.748460346083989e-05
5,2018-02-24 20:05:00,2018-02-24 20:20:00,21.47222222222222,1.6666666666666667,1782.5016363359277,19.888966566406296,1.5811514716916668,9.230430634269141e-05
6,2018-02-25 05:25:00,2018-02-25 05:35:00,19.87037037037037,2.037037037037037,1070.5554615320448,17.91668802784363,207.58274122841794,0.02086878364817094
7,2018-02-25 20:05:00,2018-02-25 20:25:00,20.388888888888886,6.111111111111111,1285.0051876865605,14.389104047605143,1.707870007679312,0.00018132703558190134
8,2018-02-26 03:20:00,2018-02-26 03:35:00,19.86111111111111,0.8333333333333333,1712.5017001455867,19.11119195367895,1.581151018988404,9.608193508533688e-05
9,2018-02-26 04:15:00,2018-02-26 04:25:00,19.85185185185185,0.0,1190.5556011724132,19.93528212418017,227.5755586107492,0.020591124039437875
10,2018-02-26 04:55:00,2018-02-26 05:10:00,19.888888888888886,-0.6111111111111119,1317.8600632079836,20.61681352971596,133.13699772570598,0.014723638002498788
11,2018-02-26 05:45:00,2018-02-26 05:55:00,19.888888888888886,0.0,895.0000004527407,20.00010287766847,1.443402490565183,0.00023159011848147119
12,2018-02-27 02:20:00,2018-02-27 02:35:00,22.888888888888886,-0.30555555555555597,1491.074068035314,23.311240974332254,150.63277919179922,0.01472061576490405
13,2018-02-27 05:15:00,2018-02-27 05:25:00,22.88888888888889,-0.6111111111111119,1057.500000394198,23.611198255252443,1.4433946539855194,0.00019596982306809973
14,2018-02-28 01:05:00,2018-02-28 01:20:00,22.875,7.777777777777778,1044.4253711349043,15.205807327520539,137.61337844801267,0.017851854929534082
15,2018-02-28 01:50:00,2018-02-28 02:05:00,22.861111111111107,7.222222222222222,1407.502073902181,15.722320514063913,1.5811606395832856,0.00011693396160106151
16,2018-02-28 03:50:00,2018-02-28 04:05:00,22.861111111111107,4.138888888888888,1685.0017317649638,18.805637713000245,1.5811546394008102,9.76520755043418e-05
17,2018-02-28 04:40:00,2018-02-28 04:55:00,22.861111111111107,4.388888888888888,1662.501752524953,18.55563882134725,1.5811535619488506,9.897534790598189e-05
18,2018-02-28 05:30:00,2018-02-28 05:40:00,22.944444444444443,2.7777777777777772,1814.9999998738717,20.22224765957509,1.4433836953300843,5.706805143018455e-05
19,2018-02-28 22:50:00,2018-02-28 23:00:00,22.944444444444443,2.7777777777777772,1814.9999998738717,20.22224765957509,1.4433836953300843,5.706805143018455e-05
